Week 3
…
Week 3

Welcome to 2*2 Tables!

First Table Year 1990

gss1990 <- gss_get_yr(1990)

Fetching: https://gss.norc.org/documents/stata/1990_stata.zip

select(gss1990, divorce, happy)

# A tibble: 1,372 × 2
   divorce     happy            
   <dbl+lbl>   <dbl+lbl>        
 1 NA(i) [iap] 2 [pretty happy] 
 2 NA(i) [iap] 1 [very happy]   
 3 NA(i) [iap] 2 [pretty happy] 
 4 NA(i) [iap] 2 [pretty happy] 
 5 NA(i) [iap] 2 [pretty happy] 
 6     1 [yes] 2 [pretty happy] 
 7 NA(i) [iap] 3 [not too happy]
 8     2 [no]  3 [not too happy]
 9     2 [no]  2 [pretty happy] 
10     2 [no]  2 [pretty happy] 
# ℹ 1,362 more rows

a <- gss1990 |>
  select(divorce, happy) |>
  drop_na() |>
  mutate(vdivorce = if_else(divorce == 1,
                             "Divorced",
                             "Not divorced"),
         vhappy = if_else (happy == 1 | happy == 2, #where happy=3 means not too happy
                           "Happy",
                           "Not happy")) |>
  select(vdivorce, vhappy)
a

# A tibble: 888 × 2
   vdivorce     vhappy   
   <chr>        <chr>    
 1 Divorced     Happy    
 2 Not divorced Not happy
 3 Not divorced Happy    
 4 Not divorced Happy    
 5 Not divorced Not happy
 6 Not divorced Happy    
 7 Not divorced Happy    
 8 Not divorced Happy    
 9 Not divorced Happy    
10 Not divorced Not happy
# ℹ 878 more rows
…
